<?xml version="1.0" encoding="UTF-8" standalone="no"?>
<!-- Created with Sodipodi ("http://www.sodipodi.com/") -->

<svg
   xmlns:dc="http://purl.org/dc/elements/1.1/"
   xmlns:cc="http://creativecommons.org/ns#"
   xmlns:rdf="http://www.w3.org/1999/02/22-rdf-syntax-ns#"
   xmlns:svg="http://www.w3.org/2000/svg"
   xmlns="http://www.w3.org/2000/svg"
   xmlns:xlink="http://www.w3.org/1999/xlink"
   xmlns:sodipodi="http://sodipodi.sourceforge.net/DTD/sodipodi-0.dtd"
   xmlns:inkscape="http://www.inkscape.org/namespaces/inkscape"
   id="svg2116"
   inkscape:version="0.91 r13725"
   viewBox="0 0 255.99999 255.99999"
   sodipodi:version="0.34"
   version="1.0"
   y="0"
   x="0"
   sodipodi:docname="StackIcon.svg"
   width="100%"
   height="100%">
  <sodipodi:namedview
     id="base"
     inkscape:window-x="179"
     inkscape:window-y="200"
     inkscape:window-height="708"
     inkscape:window-maximized="0"
     inkscape:zoom="1"
     showgrid="false"
     inkscape:current-layer="g4048"
     inkscape:cx="114.55544"
     inkscape:cy="143.36488"
     inkscape:window-width="706"
     fit-margin-top="0"
     fit-margin-left="0"
     fit-margin-right="0"
     fit-margin-bottom="0" />
  <defs
     id="defs9">
    <filter
       color-interpolation-filters="sRGB"
       inkscape:menu-tooltip="Blur the contents of objects, preserving the outline"
       inkscape:menu="Blurs"
       inkscape:label="Blur content"
       id="filter3039">
      <feColorMatrix
         result="result7"
         values="1 0 0 0 0 0 1 0 0 0 0 0 1 0 0 0 0 0 1 0 "
         id="feColorMatrix3041" />
      <feGaussianBlur
         stdDeviation="5"
         result="result6"
         id="feGaussianBlur3043" />
      <feComposite
         result="result91"
         in="result6"
         operator="atop"
         in2="result7"
         id="feComposite3045" />
      <feComposite
         result="fbSourceGraphic"
         operator="in"
         in2="result91"
         id="feComposite3047" />
      <feColorMatrix
         id="feColorMatrix3049"
         values="0 0 0 -1 0 0 0 0 -1 0 0 0 0 -1 0 0 0 0 1 0"
         in="fbSourceGraphic"
         result="fbSourceGraphicAlpha" />
      <feColorMatrix
         in="fbSourceGraphic"
         result="result7"
         values="1 0 0 0 0 0 1 0 0 0 0 0 1 0 0 0 0 0 1 0 "
         id="feColorMatrix3051" />
      <feGaussianBlur
         stdDeviation="5"
         result="result6"
         id="feGaussianBlur3053" />
      <feComposite
         result="result91"
         in="result6"
         operator="atop"
         in2="result7"
         id="feComposite3055" />
      <feComposite
         result="fbSourceGraphic"
         operator="in"
         in2="result91"
         id="feComposite3057" />
      <feColorMatrix
         id="feColorMatrix3068"
         values="0 0 0 -1 0 0 0 0 -1 0 0 0 0 -1 0 0 0 0 1 0"
         in="fbSourceGraphic"
         result="fbSourceGraphicAlpha" />
      <feColorMatrix
         in="fbSourceGraphic"
         result="result7"
         values="1 0 0 0 0 0 1 0 0 0 0 0 1 0 0 0 0 0 1 0 "
         id="feColorMatrix3070" />
      <feGaussianBlur
         stdDeviation="5"
         result="result6"
         id="feGaussianBlur3072" />
      <feComposite
         result="result91"
         in="result6"
         operator="atop"
         in2="result7"
         id="feComposite3074" />
      <feComposite
         operator="in"
         in2="result91"
         id="feComposite3076" />
    </filter>
    <filter
       color-interpolation-filters="sRGB"
       inkscape:menu-tooltip="Blur the contents of objects, preserving the outline"
       inkscape:menu="Blurs"
       inkscape:label="Blur content"
       id="filter3085">
      <feColorMatrix
         result="result7"
         values="1 0 0 0 0 0 1 0 0 0 0 0 1 0 0 0 0 0 1 0 "
         id="feColorMatrix3087" />
      <feGaussianBlur
         stdDeviation="5"
         result="result6"
         id="feGaussianBlur3089" />
      <feComposite
         result="result91"
         in="result6"
         operator="atop"
         in2="result7"
         id="feComposite3091" />
      <feComposite
         operator="in"
         in2="result91"
         id="feComposite3093" />
    </filter>
    <filter
       color-interpolation-filters="sRGB"
       inkscape:menu-tooltip="Blur the contents of objects, preserving the outline"
       inkscape:menu="Blurs"
       inkscape:label="Blur content"
       id="filter3119">
      <feColorMatrix
         result="result7"
         values="1 0 0 0 0 0 1 0 0 0 0 0 1 0 0 0 0 0 1 0 "
         id="feColorMatrix3121" />
      <feGaussianBlur
         stdDeviation="5"
         result="result6"
         id="feGaussianBlur3123" />
      <feComposite
         result="result91"
         in="result6"
         operator="atop"
         in2="result7"
         id="feComposite3125" />
      <feComposite
         operator="in"
         in2="result91"
         id="feComposite3127" />
    </filter>
  </defs>
  <image
     y="2.4414049e-08"
     x="-3.5449218e-06"
     id="image3078"
     height="256"
     width="256"
     xlink:href="data:image/png;base64,iVBORw0KGgoAAAANSUhEUgAAAQAAAAEACAYAAABccqhmAAAACXBIWXMAAAsTAAALEwEAmpwYAAAg AElEQVR4Ae2da6xlRfnm9z7n9GnoRhHFC6Lwj4IKzCijg5IYRztEohIv8Rovo2JEYxSTjnc/tWYS vvhFlItO/HcykiF8EONENOJ1jFFHdNBRERz/XlARgeF+6z6XPe+vej+nq4u1zz67T++1a+/zVFLn rXqrVtW7nlrvU7Vqrb1Ot9frddoK9NXtdjv79u3rbN++vfODH/ygs2vXrpRGR5nsiXQ37MI4pEPd CJTjFMO48evqwFAfmROkrdXV1c5RRx3Vefjhh9M19uIXv3jtmtM1eGR6m/5WFio7BTl7t38FreUr s9PmNCOQe32fw4PFh7DBkOLmnoZo1abkkOpbtrgmAsDZ1+K2bdsW4wqa64+M9Ft2oCo9cTm8JGbG BLy6EmE5nG+1b7fIIFR51U5nbm6uc/TRR3eWl5cP6xTL9lgB0Nbi4mKa9WnfYTACtRCAHJzRIm5f WlrCNuJ8RJUjHepBAAcnrkRc6kfy4XdzRweJM17hj8tLkEKkIQKt7hITsFx/4IEHoujIBAgAUti/ f39qkPYdBiNQEwHMxcB146LB+Rc//elPX/L85z//P9x99933x37BYswoq1w8g0/FJUcCAZynnFVp t0kXzrUUzv1g7N/cc999991x2223/f2HP/zhTbfffvuf//a3v/0lHPv/4e9xeAzh9rmouz/GcWl+ fn4uZO/EE0/s7dmzp/eCF7ygE8d2FhYOXI5RllYG650P9jC733PPPZ24XtL+kepTFn2kFcAZZ5yR 1HFdJelLSCgdkLDxoZox5uiLASg2AbtcHKFLM32kd0Z6xze/+c1rXvaylz37zjvvXNqxY8e2uHh6 cawJYIzjQ9NNM2bTNYIujzounHH1oYceuu+GG274/Y033vi/v/Wtb/3P66677mfhqLeEw86HIzLW D8VQxuG93qMe9ajVK664ohdjnZbto54eG31xbRxCAGoD+7i9gAwcmhGoagUQJs7HoC2GPCpm/tVw /s4dd9yxHIPI7LFiAmgexCOlxWGIeSjzlOX1cPysTiR78+Hoxz772c8+63nPe95Zb37zmy/4y1/+ csP/iPDlL3/5qltuueX/xv35zhjPfVF3KRx4/tWvfvXqueee2/v617/eY3IgsIvPzM4s3xToE8fm GoEESKNTYK5gJfHkJz95rczzh9A5KGsjAOxhrcaScTFmfhh8W8T5uGDmTAAHB24cKc3iedu5U0mP royUocPpop1e3BJEciVUvYXHPe5xZ+zevfvfnX/++e+4/PLLL/v85z//r1QP554LJ99/3HHHzV97 7bUrr3/96ztf/epXOSbN6Mzeg0JeB5IgolPA2Tkf9A6DEaiFALCQ5T1rNSL3/F1mgHD8XsQkzeCB zBgDDpQ7EV0NyquuJHVxuIiMYzdm+QXK0MWsvnzzzTczq59w0UUX/Zezzz77P11wwQUfvP/++2+L +/65u+66a1/cGixcc801y6eeemrn4osv7p133nlpc3Dnzp2JVEpHpm2uB64NrpNBKwDqOQxGoAYC SBdMmKgnABDAthjwOQY1RJfBRxIGn4pLNoOAHCp3GOnUbl4mHZJhwdGRjBX1mP3RRbob47jAbI7u F7/4xf643z839gauet3rXvfuf/zjH38M558PJ34Q0ojbhRVuCb72ta8lEnjwwQc7rARpi7bL0L82 1vpVObaU9qvM8iACj0T0YFnbKZwbe7QKsLO3PQLR30Y4FsdSxESlc0lTRHSs4sLBEyHEpt/i9ddf v//pT3/6c4IE/vvTnva0M6JsLkhgJ4/ugizmWRUECXRjRZCcHxLA0SEBhyOLQC0EIGcXCdRi15FF e0pa0+y5nrk4NqFw+pTP9X2njSa73VgBdOIJQe/Rj3704m9+85ulJz3pSafG3uB/O+WUU54DCbA5 CAlE2iSQ0B3/n1odLc0e4z9997BRBOToqg9JKORkgK4pLyKI4i4kwKPdIIHlE0444V+uuuqqvc98 5jOfE84PCRxD3WEkkPcvOyxHR6BWAhj9THzEYSMgh91IA2XdMq820CuWOlYD4eAsIRZ+97vfLcdt wMlf+tKX9p522mmQABuIQ0mA1YTD5hEwAWwew5lrYZBT60Tl2Hm9fEZWOfWVLmU4MEuI3r333rtw 6623QgInXXrppXtPP/30DZEAG8QOm0fABLB5DLdkCzh87vSjgCDiCBlNdHvx2vBCyOXYEzjpsssu 29BKQL8f4HbhcO0YxeZZrWsCmNWRHeG8Sgcq8+s11VQXnZxc5crnbeG8MZN34zXh3j//+c+FeEKw HM/9T/riF7+oPYHG24FvfOMbHd4P4A3AuF3w04Ec1BHTVRMAF4/j9GOga1JkQF7jyr18vPXZjef/ PV4GCoceSgKvetWr0iNCXheOl4nSB2UgGLWZS/Vt2YxA1QTQbLK1k0RAzoUNpAeFvKw8Ji/DcXnG H7N5N24Feo9//OMXeHPwMY95zEnx2vDeZz3rWY17ApBA/GCsE08ROvHacSKB/pOGQSZZ34CACaAB FKseiUDuxGWpHDqXql/qmo7t3wp04q3AtDF4zDHHLMTTgOV4XyBtDPYfER5yOxCrhblXvvKV3a98 5Sudpz71qelnwbGS8O1ACfCQvAlgCEBbtViOO+z85ehlvVw/LM0qIBw6OXEs6bvxjkCPFwJDn0hg vZXAm970pu7VV1/decpTntKJJwppJeBHhOVoDM6bAAZjs6VKSocv8zkYuUMP0ut4vb+vYyTRk5ZU /Xgk2InNwG6sCnoxoy+EMy9HPq0Emm4HYs9gLn5yfAgJsDcACajN3EanD0XABHAoHs5lCJQORH6Q Tvpcqr6cXFJ6uiKNnlUAXwSKrwmldOzyd/kNQThzIoH1bgdKEuArQSKB7HScbEDABNAAilUHEJAz N+FROrHqlnqOxcEJKkOik16S2wCe77OpF/sAlKc9AVYCQQZpJXDJJZc0PiLMSUB7AjkJQDC1xgTO hP6YACYEfI3dyolz20qdnDivQzrX6xgcW/pBOpXTBvXZEIyvQKVPebEiCFJItwP5SmAUEmBjUG2r r9pkMnBCf2r4HsCETt3dNiGAczBTKpR56ZGUEagvpyrTODX348i8jProiPmxvOLLZ76QMaunY0Km 3w6wEojHhWklEF8V2vuBD3zg/JtuuulXUX5MPDW4nx8QcUzsCaxeeeWVvde+9rWd+NhIJx4ppq8E 01dtAZtY+UwqmAAmhfwU9YuDlqSA+XJolcmpmcV1jJwbScjryPmRRIiCWZ9bAL4NyEdEeNuv7yDd cPK0JwAJsCcwiASo/5a3vCV9bDTIIH01iLZkbzLEfxICJgBfCI9AQM6rAjmvHB19rsN55fT5MWpH 5ZLolUYqj4QA+AAI8dhjj137MGi/70QCrAR4WYinA00kENsFsYCY77zzne9cZSMxvjeQ2qPt0k7Z 26bkXLAvCK1z/PHHd84888xkF1i0HUwAbSM+Jf3JeWUueUJJAsrn9eXc0iHzqHIkkTIcQhInZRUQ bwWmcurQD+Uh170diNn/mLgVuD/q8nXiztvf/nY+I3TwniadxeT+9M8hva/AKuclL3lJ5/vf/34i OvYrdJ5tWWgCaAvpGehHF29+KtLlknLyklzUcuKkzMpFANRXHSQv9UAKuj9m9ibQVoREAmwMaiXw uc99bu+FF16Y9gREAlF3vr8JWA0JcJ6xKlkjAJ0fJzWJUC0BAFRTnARIW7VP8O873BoEctI1RZbA YfMlNmnqS6djaZO2lUfmY007+rkvm3ocn9vRT6fbgShflwRimc3/msDKKkhAmDL7E2K1kuSk/rR/ 0zGpM3W/h4UAF2we5KjSkceBFVRf9UopZ5fkONKK1Ge2j8+GpU1BZkjyRKUhhX4e49Ibg+HkaU+A lQC/HQjH4t/MHYPzB6HMR7sHPisd7ec2ye5xybwvpemLdA3h4MjVYI1tqBKB8mIt8xgtXS7LtPJy fuWRirTFCoANMmZJnJ4yJPqcBEhHHEoCPF2g2SCD9P8nIQUi7XKLIHLpt5f6OJw0xFRGOlZ/ktIh Jx1MAJMegSntH+fJQ55XGrnRSFs6DoLAaUUA5HF+Ra0IcLaSBOJ2Ye3pQLkSiPb5jhjXfDKeWwv6 4J6cpfhmI6RVRpy+5lDtHkDNoG1F23DO/GKWs5Y68mXdHC8dh450HrUyEAHwDgBOL73aztvL0msb g3pZqGljMPrjdoB9hdV4QagXPzDqxP+hTO8cQAD0lQfq5mFQPtfLfggq/klqeqJBeY5V3uYk0yaA SaI/ZX2XF/F6eTmE6iCbYu5w5THMzuggAeQGHOgRJJC/JxCrhfSIMGBPJBA/PV6NF4Z6u3btSj9C 4vcHzOAiHNkjG8nnZeRzncpwfMjrCU94Qie+WdD56U9/mlYqtE39DZxHa1dGtQQgcEvZGjLuaEMI cNHnF7TyjBtLbPIE0uVYKk8dovKSOBGBPCRAP6TLgJ5bgX7YEAlEO/PY9MEPfnD1U5/6VO+cc87p xBeJ0o+QcFSRDm3KnkFS58gxBGyBvMizqqg5HLreqdlS21YFAqUDyimajMvrqt4wmRMBjkiQDklk DwDn0l4ADqeNvL7kX5Kt/ZRYbwxqTyBm6PR0IGzhPYG5IIDuj3/8485JJ52U9gPiNePkxGwQDor8 0lCROrxqTB6ZR+ytOdRtXc3I2bZDEJCzS6pQDq+8ZF5PdSSpQ5rNOUJJAE0kIDLQxmBIlgqJBGKm P2RjMIglfV6MjcZIB5fMz33sYx/rfvvb3+7EvzJPewK0x+xNnaaIbcS8TJuJKkOyOqk5mABqHp1K bcudFxOVL2VpPuU4RF5P6bwuOpxcy2fyiugVcVKtBLQK6K8A0gweukQCMUMvDCIB7AlHnY+6c5/8 5Ce7vJbLh0aHfW1Y9pTnL30u83OrLW0CqG1EZsie3AlIE0opnfSpUr8eM2i+dyDHz+WRJIFoa+4T n/hE97vf/W7niU98YiIBVhTYMKvBBDCrIzvm8yod9nC6o42mqLZYXhPyvkjnBEB6GAnodkArAf2U uPzaMCsBkcD3vve9RAK8krwZEvAtgEbTcssgkDssJ608UukSjFKPYzPzlrcMam8UEoAgytuBJhLI bwc+/vGPb3olULvzg6VXAOWV6PzYESidPe8wJwkIQMtvHZPLUUiAPQKRQMzoaU8AEuDzYvnXhnHa 2HtIKwFI4Dvf+c6Gbwfk8Eil83OrMW0CqHFUptAmOaZMz/OklZdUPUnVUbmkypHS5XKjJMAyvokE 8keEejqA88btR9oYLFcCtKFbE9k2Lc4ue3NpAsjRcHokBOSI+UFNury8TFO/6Rgcu2kmVd1cHg4J xPHpV4SxwkifFxv0odFw+PSIMN8Y5Ln/IBLIySBPl+ddS75aAmCAHbcmBjj0eiF3fuqRH5UEYl9g 7RFhOHN6T+DSSy895JPjOLA2Bj/60Y+m24H4F+bp3X5WFOuRwDQ4P9itjzQ1HIzAiAjIQfPDSh35 XEcaJ5Ze+byNPK1jc7keCbARqFjeDvBloXDYRhJgDyIcPe0JiATyR4QlCeQ2TgMJmADyEXN6rAjI WfNO0CmiV7qpbn6c6payJAFeFNLLQiIAJCSA1MagHhGyJ3DZZZcdsjGYk8BHPvKRR2wM5iSA0yuW 9taYNwHUOCozblPu3PksmTs/aZx5WFBbucxJQAQgWZJAvjEoEohfBTb+L0JWAuwJiATWux3A7mkg guEIDxsBlxuBTSAgx6UJ0sojcWTl1+tCdXLZRAI4f7kagADylQC3A2wMshJgTyB/RMhKgEeEkMCH P/zh7rXXXtspSaB0etm0nv2TLDMBTBL9Ge67vPCVl2w6dZUhFZvq5To5nI7Ny9QGEkKQ80tqNZCT QLS39gMi3hMoSYD+tDEICfADIvYE+Iw57XA7QB3Igki65lA1AWhQ84F0+qBzTBMWOEFpr2Z49GVa +WHOozbVPscR8yU/jiknl/OXsr8KOGRPIJx54EpAtwMf+tCH1kiA14b1H4g2av+w8xt3edUEMO6T d/v1IZA7NE5LnpmUmbUp8oOhMvIrQkXKSCOZjXHMzNnT7/3ZENSTgf6qIH1PQHsCrASaNgZ1OyAS 4B+Z8I9N6YOPmdCvVwD1XWO2qAUEckfOu0NPkMzL8jROhNPi/KQ1o5dSy/hcasaXY+cf6kCnvvOl On3TDy/5UCfkIe8JNJEAx0MCUX9u9+7d3d/+9redc889N31YhH/3dcYZZ3R27tyZTkt95udYQ7ra T4LVAI5tOHIINDlAriNNlOPj6Px/wB/96EdJz4wKIfCVIM3okAM6nJ+lNysEjuPbfrSDRL9jx461 r/WQVtTZcRx98Q0APuVFu8RotxtlvWhj7b8SsxJ43/ved/6NN954yH8lhnTe+ta3rsbmYe/lL395 2hOgfeyoOZgAah6dKbZNS1+cWmmdTpPjqwypciRLav5JCI4PCRBx0pwINJMjlaadPA9JyPEhBWZm Nu/4cOdjH/vYFI877rg1AoIQ+Fpw9N2N/noxyy8E2SzHl4TT7UBGAjvDlgejL54OdM4777zVa665 pvfSl74UExI5pUSlf0wAlQ7MtJs1yPFxyjLkDk86jyzJyTOzM5sSSeNs+Z4AbTJrE+T4kugoo/5d d93Vue2221L617/+dapL++HYKUIKJ598cufEE09c++ekkMCdd97ZizbSSiD+a/FJX/jCF/a+973v fWesBP5P2LIjViUPRvvcDvRe85rXdH7yk5/0nvvc56aVhWxC1hZMALWNyBTbgyM1OTinlDujHBw9 ackyjbNznJxXDs+yn8itALrS8Wkv70820T7390TVSYn4wyrjnnvu6fzpT3/q8IFQrRD4UOipp54K IXSDeHqxMlgIAlmOVcRJl19++b++5z3vecfvf//7G4IEjg57Hoo6C7EiWI5vDHbiEWEPoiLo3FKm oj8mgIoGY5ZNaXIAdLmetGZ5ZJ5nCY/TawWA47MSIFBPTk4+d/48j57jCJCGjkNP+yIGyqn397// vXPzzTczm6cXfp7xjGd0gwx6sUJYiJXEcvT/L5/97Ge/FCTwn//617/+G21wOxDkMR/fEVh529ve Rj9pyUNfNQYTQI2jMkU2yYmGmUy9vG7uEDi1HFLtqL4IoSlPXeklRQQ5CeQ66ilIj460VhKUixBU dvvtt3duueWWzs9+9rPuKaec0jvrrLMW4lZgKTb9TvnMZz7zxXe9611vjf2JW8Peo+J9gH2QyZVX XrnSb7PH3gVBfaZMBX+qIwANELIpVoCZTdggAhpLVW8aT3RycpyFWR0nIZJmJtbsT14RHXUo5/hB gTbVntpENoVcnx9DWo/zWIXEv/vqxrK/d/rpp2+LuP9FL3rRv4+VwH+NPYF3hC13Rf3VWAksBQn0 on6YkPYmmjttMqRFXXUE0OK5u6uWERAB5N2WJIEzqx5pkQASpyfi9H2nWltV5M6rNtGJHEQE9J3X VZ5jSn1uJ30SsSNmfW5Hur/61a96f/7znxdPO+20fa94xStecPHFF1/y/ve//4K47+e/E93HHkW/ TRjABJAD6vTsI1A6lRwTuV4UCUjK+XFANtXkqLRBHZGBEFU/qocUAZCWXvWRpS7Pk8YGJO1gB0QU twDdmOlXr7/++u2xX/DwG97whnMuuuiiPfFp8Y/Ey0ePimX/vdgSx+H86cWivM8a0l4B1DAKM2xD 3wHWzpC8HDSXpHFmfAWpiKPhdPnMf8CfDrxkgzOSV1zrqJ+QXhI1aQXS9C2dZF6OjiiiUZrbgXD0 ucj34jHhUXv37t3/xje+8e3xRuBNV1xxxeV9Ergn2p/nmAjVrQRMABppy7EhIAdDEnJJmijnx8mU RzLzavbV7K/yJlKg/b6zJUm6jNQpQ34MZfSh48iTxjbpREpIbge434/VwOLVV1+9cuGFF+75wx/+ 8G/xX4GvDZt3xq3AA9FeIgrainCQgQ7kJ/a3WgJgAJrixJByxyMjwPjhIAo4D46ODqdGEqmnvIiA PIH7aBw/D9ShnBmYFYD6kHNSl7RkqVeZylPF/p+8TOU6XpL+SMt+dvyxk1eP4z2B3nXXXbctbgP2 xKvBv4vXi2+NdhajPv/pFKMOPIek8QpCtQRQATY2YYMI4MA4BCFPl4erDElUfelFDiIBHAxHp21m ewXKcXzKmgiA+rJnkKQtleXpUqc8kijnV1r9B0mlf0serxUvxCPDffFG4bPiewG79+zZ89G4FdgR +wFLcZ6wGkBVcytwEFVQcDACRxgBObocSc6OLCOOLefP01oNqC2kyiEGOSNS/eCohFyXp8vT1HE6 RuU6pknK+VUGCaAL59/+xz/+ceWFL3zhW84+++xvxq3Ad6KM14UfCLt1K3CAMdXRhKQJYELAb7Vu cVo5mdJyZPSkiZrx0cnxc6y4HdDMLykHlKR+nm7Kq03qKegY2Vcel8/+lOHsHINeZSF74ePd+OHR aqwEFt/97ne/Jwjgf0XdfXHIw/3+YKcqngqYABhJh7EhkDsTnSiPHBRFAtTPHZT6OJ2Oo4y6cj7q kyZQpmOV5jjpUqWGP2V52Z7aQt+0+gh9WgXE9wO2xa8JV+Kbgi8+55xzXhj/WORbsVewIzYK74tu eXMJ5jnIPg22tKEyAbSB8hbro3S0pjyQyJHl8MqzvEengJ6gcpEAzkhdnFGOmR8nHceSHhQGlZXH K48UMahvScpic7IX5AARrPBkYNeuXS8NAvh+v3+dWBWbgSaAQVeF9SMhgHNy8Q8KcuK8DjocGIcW CcihkWUQAagvnI5IXdolUoZOIe9POknqElRHUuWS6POYO7v0uU4blvH68By/MowfEf3HWBEcf++9 994ZtvLVYQysYhVgAtAoW44NATlsLvPO5PSQAGTQ5PzU53iiHD53OqWpJzIhTcgdW2naIcimlIk/ KidfppVHHvDhA0ep70zyTUE+KzbPx0tiU/Cp8XPik4MA7ghyWIxVAU8EDhhwoImJ/a2WAMCnKU4M KXc8EgKMnRyGA+W0kirHaeTw6AhyLo0/5ehEDnJAtcUx6BSVV3u5HZQp5OV5WvUlqa+2JXOd7EUq Tb1osxv5lSCCY+P7AU+kmVDxUgMnygoAOXjZFIXjDtUSwLhP3O0feQRwotxp8h4oU8jrSC8nZ/aW rqyn9nEy1adN6ikqr76QOi7X5WnKibSLJOR9K507t9KS6p886ZDaB1iNJxfzYe8x0Sz3/3J+7wEA tMPsIlA6nvK5zM9eTo2kDjM+AYeSjrSORyfHQ6puSvT/6FiV52VK0x4B8lFQ/VyqPHf6PE1dRfTs BfC2Yn9PgMmWWV8zP50e6FidTkB6BTAB0Ge5SznnoHOUs1GOs+R5dCIB0loN4ExyLKTqkCaoTOlc ki77QNcUBtme98Nx6k9SJFCWYT+vCfPuQtSFXUQAIgEOmWgwAUwU/tnvvHQq5eWUOJHSQgPHkdNT pmPkcMim2Z/jKctlysSfsg/pNyLLNmUHx8pO6WQreq0A+isHzfil3IgJY6tTNQFo8HM5NiTc8BFD QE6gBsu8nFd6nCdPk8dpkDiS6ufORttyOqXVH3oF0rS92VC2qb5xctmlc6AvyrFbtwB9G5j5qwpV E0BVSNmYI4YAzkDEcfqOkRxGaaQcTkRAXseoDIOULmVurMpy3UbTson6tKO28rQICp3qi7iwn9uA 0IuFSrlRU8ZSzwQwFljdKNe7nAU0ynyuk2/kDpSX52m1k7c9KM1xKtNxeV+UjxJkn9rMJek8j+MT WSEQ+/1W5fycuwlglCvAdUdCQE6ng5ryuU5pHIm0gvTkpS8dTnUl1YacUvomSZvM2OsFtUed3AYd Q7lWNKSJIgFWCHHMwRPSQRVIE0AFgzDLJnDd4wwKZR69fIN6eTovy9N5PTkd5RsJuS15fZw1D4Pq lXrlsUNtoCPi+Mz+PAXQeeV99NMQw0GAGiqMU2UCGCe6bjshUDp9madS6SCqIwcrywUtTqc60uVS ZYOOp67q5MflacpVR3apXO1Kqh4S2yABpMp1XC3SBFDLSMy4HU2OI2fRqTc5iXSqi5Su6TjVayqT rpRle2U5+bJd5SV1jPJIEcBG2tfxbUsTQNuIb+H+cAQ5CDDIMXJdrld9ylVXuhzG/HjVy3V53cNN q10dX+alV79IZn+vAITMiBKAm+KIzbj6FCDAOMtxSnNzR1MdSeqSzuvo+LLN/BjVOVyptiTzdnJb RADIWoNXALWOzIzaJQcpnWeQPodBdSQpK9tpqj+sXn5MU5o+6FN9rde/6tAO9RSb2q1BZwKoYRS2 oA1yotxhgEF60mUZujLk9cuyPD+o3ih9qI38GOnUl8qQzPyUl3VUtwZpAqhhFLawDTiHnKaEIXec QXXKY0bN532Uxw7qc71jVCYCKPcAVF72Nal8tQQgoJB5nBRQ7nd8CDC+g5xNvep6GFZP9Y+E3Ihd 6/UzDddttQSwHrAumz0E5OA6s0GOXtZT/XFJ9ddkT5NuXHaMq10TwLiQdbubQkCORyM1OFpuj04s 1zXZSHkedVxN0gRQ02jYlkYEckdThSaHU9kkZJONcv5J2LPRPk0AG0XK9apCoMnhxmngZginbVtH wcEEMAparrtlEdiIE2+GJCYFrAlgUsi735lDoCQJ8qWutpOu9x3F2pCyPUZgBhEwAczgoPqUjMBG Eaj2FkBLJy2jJDd6Yq5nBCaNwDRcs14BTPoqcf9GYIIImAAmCL67NgKTRqDaWwABo2WUpPSWRqB2 BPJrlnSNwSuAGkfFNhmBlhAwAbQEtLsxAjUiYAKocVRskxFoCQETQEtAuxsjUCMCJoAaR8U2GYGW EDABtAS0uzECNSJgAqhxVGyTEWgJARNAS0C7GyNQIwLVvgikFyf0MoVkjSDaJiPQhMA0XLNeATSN nHVGYIsgYALYIgPt0zQCTQiYAJpQsc4IbBEEvAewRQbap9k+At4DaB9z92gEjOD2Mc0AAAgNSURB VMAICPgWYASwXNUIzBoCJoBZG1GfjxEYAQHvAYwAlqsagVEQ8B7AKGi5rhEwAq0j4FuA1iF3h0ag HgRMAPWMhS0xAq0jYAJoHXJ3aATqQcAEUM9Y2BIj0DoCJoDWIXeHRqAeBEwA9YyFLTECrSNgAmgd cndoBOpBoNoXgQSRXqaQlN7SCNSOQH7Nkq4xeAVQ46jYJiPQEgImgJaAdjdGoEYETAA1joptMgIt IVDtHoDumXQfJdkSLu7GCGwagWm4Zr0C2PQwuwEjML0ImACmd+xsuRHYNAImgE1D6AaMwPQiYAKY 3rGz5UZg0wiYADYNoRswAtOLgAlgesfOlhuBTSNgAtg0hG7ACEwvAiaA6R07W24ENo2AXwTaNIRu wAg0I+AXgZpxsdYIGIFKEPAtQCUDYTOMwCQQMAFMAnX3aQQqQcB7AJUMhM2YPQS8BzB7Y+ozMgIz hYBvAWZqOH0yRmA0BEwAo+Hl2kZgphAwAczUcPpkjMBoCJgARsPLtY3ATCFgApip4fTJGIHREDAB jIaXaxuBmULABDBTw+mTMQKjIWACGA0v1zYCM4WACWCmhtMnYwRGQ6DaV4F1GnqdUlJ6SyNQOwL5 NUu6xuAVQI2jYpuMQEsImABaAtrdGIEaETAB1DgqtskItISACaAloN2NEagRgWo3AbVpoo0UyRpB tE1GoAmBabhmvQJoGjnrjMAWQcAEsEUG2qdpBJoQMAE0oWKdEdgiCJgAtshA+zSNQBMCJoAmVKwz AlsEARPAFhlon6YRaELABNCEinVGYIsgYALYIgPt0zQCTQiYAJpQsc4IbBEETABbZKB9mkagCYGp eBUYw6fhtcomgK3b2ghw3dYcvAKoeXRsmxEYMwImgDED7OaNQM0ImABqHh3bZgTGjIAJYMwAu3kj UDMCJoCaR8e2GYExI2ACGDPAbt4I1IyAHwPWPDq2beoR8GPAqR9Cn4ARmF0EfAswu2PrMzMCQxEw AQyFyBWMwOwiYAKY3bH1mRmBoQiYAIZC5ApGYHYRMAHM7tj6zIzAUARMAEMhcgUjMLsImABmd2x9 ZkZgKAImgKEQuYIRmF0ETACzO7Y+MyMwFAETwFCIXMEIzC4CJoDZHVufmREYioAJYChErmAEZheB an8NKMj1ayp/FFSIWE4TAvn1W6PdXgHUOCq2yQi0hIAJoCWg3Y0RqBEBE0CNo2KbjEBLCJgAWgLa 3RiBGhEwAdQ4KrbJCLSEgAmgJaDdjRGoEQETQI2jYpuMQEsImABaAtrdGIEaETAB1DgqtskItISA CaAloN2NEagRARNAjaNim4xASwiYAFoC2t0YgRoRMAHUOCq2yQi0hIAJoCWg3Y0RqBEBE0CNo2Kb jEBLCJgAWgLa3RiBGhEwAdQ4KrbJCLSEgAmgJaDdjRGoEQETQI2jYpuMQEsImABaAtrdGIEaETAB 1DgqtskItISACaAloN2NEagRARNAjaNim4xASwiYAFoC2t0YgRoRMAHUOCq2yQi0hIAJoCWg3Y0R qBEBE0CNo2KbjEBLCJgAWgLa3RiBGhEwAdQ4KrbJCLSEgAmgJaDdjRGoEQETQI2jYpuMQEsImABa AtrdGIEaETAB1DgqtskItISACaAloN2NEagRARNAjaNim4xASwiYAFoC2t0YgRoRMAHUOCq2yQi0 hIAJoCWg3Y0RqBEBE0CNo2KbjEBLCJgAWgLa3RiBGhEwAdQ4KrbJCLSEwEJL/RxONz0O6kXI5eE0 5GOMQNsIcN12I9R+/dZMAGnMAJEEktD2QLo/I7AZBHTNrnPppgluM31s5tjaCAAwUlxaWlrmxPbt 27c0Pz8/t7y8vCIwN3PCPtYItIEAM//CwsI81+/27du3rUaIfolMYrrO2zBl3T5qIQABIrlv27Zt aX8C8ALIuSAB/N8rgHWH04W1IAABcL1y/WLT3NwcE9pKxPmIXOdVhBoIQE6fZMz8+wOZ/bt37774 +OOPP2H//v04/1GBJ4RANAlUcenYiHUQSLN9+P/yysrKw4uLi0u//OUvfx31F+L6fpjjIAgE6UmG GghA578agLFSWgrF/gDshyGPirgz4mJEmBT2dDACtSMAATDjcy3j8PdHZPbvxPWNHsenzsRDLQQg NgQkAHo4bgEeHcsmHF+BOpR7BSBELGtFIJ/ZWbVuj5n/3nD+fZHmGibqmo/k5EJNBCDn5xagG4AB 0EMRmfmxk9kfMB2MQO0IcO3mqwBWAjg/kTRlOUlEdjKhBgIQEyIhAQDisZ/yEAJ2MvObAAIEh+oR 0DWt2X4pbvm5rrmWtRlYBQlMlADCydNI9p2dPQCNLAACEKDh9EQK1ypE2sEI1IyArmGuYx5hpxUu MsiAa53yiYeJEsCBjdBYCx182W+1nwY0Ig5v55/4ZWIDDgMBObiuZfKQQCKGuM6RqnMYzR+ZQyZK ALHJl84inpX24nFJJ573gwug4PgiAOpo5pdE52AEakZAzp1L3g3oxUttPa75eEmoE5vdEz2HiRJA 7IqmkwcIQIEEMgLIgbHj52g4PU0IiACSzRAAcxzXPCE2u5Oc1B+sab1vHJ/Z/+677+78/Oc/78SL Eh2cP8Bp3RZ3aATaRgCfi5fbOvGSWydeduuceeaZvB+QfKJtWyZCAG2fpPszAkagGYGJ3wJMegnU DIu1RqAdBFgJT3IfwCuAdsbZvRiBKhGY6AoARCaxB1HlSNioLYvAJPe+vALYspedT9wI+NVaXwNG YEsj8P8BOoYQVT1vphwAAAAASUVORK5CYII= " />
  <text
     xml:space="preserve"
     style="font-size:79.90946198px;font-style:normal;font-weight:normal;line-height:125%;letter-spacing:0px;word-spacing:0px;fill:#ff0000;fill-opacity:1;stroke:#ff0000;stroke-width:4.94377851;stroke-miterlimit:4;stroke-opacity:1;stroke-dasharray:none;font-family:Sans"
     x="42.134129"
     y="223.98029"
     id="text4044"
     sodipodi:linespacing="125%"
     transform="scale(1.0024252,0.99758067)"><tspan
       sodipodi:role="line"
       id="tspan4046"
       x="42.134129"
       y="223.98029"
       style="font-style:normal;font-variant:normal;font-weight:500;font-stretch:normal;fill:#ff0000;fill-opacity:1;stroke:#ff0000;stroke-width:4.94377851;stroke-miterlimit:4;stroke-opacity:1;stroke-dasharray:none;font-family:TeX Gyre Chorus;-inkscape-font-specification:TeX Gyre Chorus Medium">Stack</tspan></text>
  <metadata
     id="metadata8">
    <rdf:RDF>
      <cc:Work>
        <dc:format>image/svg+xml</dc:format>
        <dc:type
           rdf:resource="http://purl.org/dc/dcmitype/StillImage" />
        <cc:license
           rdf:resource="http://creativecommons.org/licenses/publicdomain/" />
        <dc:publisher>
          <cc:Agent
             rdf:about="http://openclipart.org/">
            <dc:title>Openclipart</dc:title>
          </cc:Agent>
        </dc:publisher>
        <dc:title />
      </cc:Work>
      <cc:License
         rdf:about="http://creativecommons.org/licenses/publicdomain/">
        <cc:permits
           rdf:resource="http://creativecommons.org/ns#Reproduction" />
        <cc:permits
           rdf:resource="http://creativecommons.org/ns#Distribution" />
        <cc:permits
           rdf:resource="http://creativecommons.org/ns#DerivativeWorks" />
      </cc:License>
    </rdf:RDF>
  </metadata>
  <g
     transform="translate(359.75313,-157.9869)"
     style="font-size:163.16629028px;font-style:italic;font-variant:normal;font-weight:bold;font-stretch:normal;line-height:125%;letter-spacing:0px;word-spacing:0px;fill:#00ff00;fill-opacity:1;stroke:#008000;stroke-width:1.19704115;font-family:TeX Gyre Chorus;-inkscape-font-specification:TeX Gyre Chorus Bold Italic"
     id="text3097" />
  <g
     transform="translate(359.75313,-157.9869)"
     style="font-size:163.16629028px;font-style:italic;font-variant:normal;font-weight:bold;font-stretch:normal;line-height:125%;letter-spacing:0px;word-spacing:0px;fill:#00ff00;fill-opacity:1;stroke:#008000;stroke-width:1.19704115;font-family:TeX Gyre Chorus;-inkscape-font-specification:TeX Gyre Chorus Bold Italic"
     id="text3101" />
  <g
     transform="translate(359.75313,-157.9869)"
     id="text3955"
     style="font-size:163.16629028px;font-style:italic;font-variant:normal;font-weight:bold;font-stretch:normal;line-height:125%;letter-spacing:0px;word-spacing:0px;fill:#6dc800;fill-opacity:1;stroke:#008000;stroke-width:1.19704115;font-family:TeX Gyre Chorus;-inkscape-font-specification:TeX Gyre Chorus Bold Italic" />
  <g
     transform="translate(359.75313,-157.9869)"
     id="text3959"
     style="font-size:163.16629028px;font-style:italic;font-variant:normal;font-weight:bold;font-stretch:normal;line-height:125%;letter-spacing:0px;word-spacing:0px;fill:#6dc800;fill-opacity:1;stroke:#008000;stroke-width:1.19704115;font-family:TeX Gyre Chorus;-inkscape-font-specification:TeX Gyre Chorus Bold Italic" />
  <g
     id="g4048"
     transform="matrix(0.37413526,0,0,0.33783559,41.85763,14.857955)">
    <path
       d="m 179.95,462.51 c -3.32,-1.08 -5.27,-1.19 -7.4,-0.45 -4.56,1.59 -10.55,1.19 -17.6,-1.15 -8.18,-2.72 -24.53,-10.57 -26.19,-12.57 -0.69,-0.83 -4.42,-3.69 -8.28,-6.37 -3.87,-2.67 -9.51,-6.89 -12.53,-9.38 -3.03,-2.49 -7.53,-5.85 -10.004,-7.47 -2.475,-1.62 -5.427,-3.6 -6.559,-4.4 -3.35,-2.37 -10.5,-18.1 -9.805,-21.58 0.376,-1.88 -0.059,-4.11 -1.218,-6.25 -1.463,-2.69 -1.941,-6.9 -2.541,-22.32 -0.406,-10.45 -1.28,-21.47 -1.943,-24.5 -0.775,-3.54 -1.324,-18.5 -1.541,-42 -0.186,-20.07 -0.792,-38.97 -1.347,-42 -3.265,-17.78 -1.373,-44.67 3.524,-50.08 0.962,-1.06 2.093,-3.84 2.513,-6.17 1.434,-7.96 4.29,-14.24 9.13,-20.08 5.563,-6.71 8.937,-12.95 11.203,-20.71 0.878,-3 2.378,-6.64 3.338,-8.08 0.96,-1.43 2.97,-4.43 4.46,-6.66 1.49,-2.23 3.14,-4.32 3.66,-4.64 0.99,-0.62 8.13,-21.34 8.13,-23.61 0,-0.7 1.39,-4.24 3.1,-7.87 7.14,-15.145 8.83,-18.869 10.93,-24.1 1.22,-3.025 3.96,-8.397 6.09,-11.937 2.13,-3.54 3.88,-6.799 3.88,-7.241 0,-0.443 2.49,-2.211 5.53,-3.931 3.05,-1.719 6.75,-4.713 8.23,-6.653 1.68,-2.196 4.98,-4.554 8.76,-6.25 3.34,-1.498 6.81,-3.845 7.71,-5.216 1.41,-2.157 2.56,-2.56 8.54,-2.988 4.49,-0.321 8.94,-1.422 12.69,-3.139 4.87,-2.228 7.18,-2.645 14.66,-2.645 9.57,0 11.54,1.265 4.63,2.974 -2.34,0.578 -7.63,1.993 -11.75,3.143 -4.13,1.151 -10.11,2.464 -13.3,2.919 -7.55,1.075 -19.52,5.597 -22.76,8.598 -1.4,1.301 -2.99,2.366 -3.53,2.366 -1.54,0 -6.56,6.161 -8.16,10 -0.79,1.925 -2.26,4.4 -3.24,5.5 -1.74,1.935 -10.01,17.548 -10.01,18.898 0,0.603 -5.27,9.022 -11.78,18.832 -1.36,2.06 -2.47,4.95 -2.47,6.42 0,2.33 -2.49,8.55 -5.9,14.73 -0.56,1.03 -1.68,4.4 -2.47,7.5 -0.8,3.09 -2.86,9.6 -4.58,14.46 -2.57,7.22 -3.61,9 -5.72,9.75 -1.42,0.5 -3.19,1.25 -3.93,1.67 -1.69,0.96 -4.119,7.79 -4.139,11.64 -0.009,1.64 -1.597,5.28 -3.669,8.4 -2.01,3.03 -3.767,6.45 -3.905,7.6 -0.138,1.16 -0.96,3.45 -1.829,5.09 -0.868,1.65 -2.102,5.48 -2.742,8.5 -0.64,3.03 -2.265,9.34 -3.611,14.01 -4.251,14.77 -6.235,23.38 -6.247,27.13 -0.007,2 0.926,8.75 2.072,15 1.146,6.25 2.458,13.44 2.915,15.97 0.457,2.52 1.478,6.8 2.268,9.5 1.143,3.9 1.266,7.76 0.603,18.9 -0.458,7.7 -1.274,16.03 -1.813,18.5 -1.523,7 -2.204,15.4 -1.34,16.51 0.431,0.56 2.09,1.46 3.687,2 4.65,1.58 8.988,10.4 8.851,17.99 -0.066,3.67 0.446,6.86 1.318,8.21 0.785,1.22 1.427,3.87 1.427,5.89 0,2.9 0.847,4.6 4.004,8.02 4.15,4.5 5.08,7.75 2.5,8.74 -2.12,0.81 -1.88,2.28 1,6.05 1.37,1.8 2.5,3.73 2.5,4.28 0,1.69 -3.98,4.74 -4.88,3.74 -0.46,-0.51 -3.37,-3.74 -6.476,-7.17 -5.291,-5.85 -5.648,-6.56 -5.648,-11.28 0,-3.61 0.436,-5.21 1.536,-5.63 1.342,-0.52 1.356,-0.87 0.115,-2.76 -0.781,-1.19 -1.666,-5.75 -1.967,-10.13 -0.734,-10.68 -1.913,-16.35 -4.212,-20.24 -3.362,-5.69 -3.99,-3.5 -3.696,12.88 0.394,21.93 2.402,32.59 6.558,34.81 1.254,0.67 3.83,3.23 5.723,5.69 1.894,2.46 5.827,6.8 8.747,9.66 2.92,2.85 6.22,6.66 7.33,8.46 1.12,1.81 2.45,3.28 2.97,3.28 0.53,0 3.98,3.19 7.67,7.08 3.7,3.89 9.88,9.48 13.73,12.42 5.85,4.47 8.63,5.8 17,8.15 9.14,2.56 11.22,2.78 24.41,2.55 15.61,-0.27 17.77,-0.82 27.53,-7.05 2.72,-1.73 5.77,-3.15 6.78,-3.15 2.61,0 3.32,2.74 1.3,4.97 -6.58,7.28 11.81,3.25 25.6,-5.6 4.96,-3.18 8.45,1.59 3.63,4.96 -2.24,1.55 -2.23,1.57 1.26,1.62 3.59,0.05 13.15,-4.09 19.69,-8.52 5.32,-3.61 10.31,-3.19 8.23,0.7 -1.41,2.63 -0.22,2.41 8.26,-1.5 4.02,-1.86 8.86,-5.01 10.75,-7 3.89,-4.09 8.06,-4.94 8.06,-1.63 0,1.1 0.26,2 0.59,2 1.96,0 6.58,-3.9 8.82,-7.45 4.12,-6.51 8.25,-10.61 10.02,-9.94 1.81,0.7 1.96,2.22 0.59,5.82 -1.27,3.33 0.23,3.37 4.5,0.12 3.73,-2.84 7.48,-10.17 7.48,-14.62 0,-2.96 0.13,-3.06 3.23,-2.38 3.71,0.82 7.77,3.23 7.77,4.63 0,0.53 -1.18,2.5 -2.62,4.39 -1.9,2.48 -2.22,3.43 -1.16,3.43 2.07,0 4.31,-2.76 6.62,-8.14 2.18,-5.09 3.97,-6.79 5.14,-4.89 0.55,0.89 1.34,0.6 2.89,-1.06 2.21,-2.37 2.82,-4.91 1.18,-4.91 -0.51,0 -1.21,0.45 -1.55,1 -0.8,1.28 -5.2,1.3 -5.99,0.03 -0.33,-0.53 0.14,-2.39 1.03,-4.12 1.17,-2.26 1.32,-3.44 0.54,-4.22 -1.77,-1.77 -1.25,-2.69 1.51,-2.69 2.69,0 6.28,-3.35 6.42,-6 0.09,-1.6 1.32,-4.08 7.24,-14.47 2.06,-3.63 3.75,-7.44 3.75,-8.46 0,-1.02 0.65,-2.11 1.45,-2.42 1.78,-0.68 1.18,1.28 -3.68,11.95 -0.52,1.15 -0.81,2.95 -0.63,4 0.18,1.04 -0.46,3.01 -1.41,4.37 -0.95,1.36 -1.73,2.98 -1.73,3.6 0,0.62 -0.85,1.89 -1.89,2.83 -3.06,2.77 -3.77,10.6 -0.96,10.6 0.52,0 1.59,-1.54 2.38,-3.43 0.79,-1.89 1.93,-3.74 2.53,-4.11 0.6,-0.37 0.83,-1.73 0.51,-3.02 -0.37,-1.49 -0.07,-2.62 0.86,-3.14 0.92,-0.52 1.56,-2.82 1.76,-6.31 0.3,-5.31 0.4,-5.48 3.07,-5.3 4.08,0.28 6.07,-3.25 5.19,-9.17 -0.38,-2.54 -1.2,-5.16 -1.83,-5.82 -0.62,-0.66 -1.68,-2.75 -2.36,-4.66 -1.14,-3.16 -1.04,-3.67 1.13,-6 3.5,-3.75 5.64,-8.52 6.3,-14.08 0.66,-5.63 -0.61,-7.96 -4.34,-7.96 -1.57,0 -2.7,-0.78 -3.26,-2.25 -0.76,-1.99 -2.42,-3.77 -10.27,-11.06 -2.74,-2.55 -1.82,-4.11 2.75,-4.69 l 3.93,-0.5 -3.29,-2.46 c -3.12,-2.35 -6.21,-7.06 -6.21,-9.47 0,-1.56 3.68,-4.57 5.59,-4.57 2.54,0 1.04,-2.36 -2.67,-4.2 l -3.42,-1.7 5.2,-0.05 c 9.44,-0.09 12.36,2.68 10.24,9.73 -1.09,3.67 -0.89,4.43 3.88,14.55 2.77,5.87 5.75,10.95 6.61,11.28 0.86,0.33 1.57,1.43 1.57,2.44 0,1.01 0.45,2.11 1,2.45 1.22,0.75 1.23,1.12 -0.46,-10.5 -2.32,-15.95 -4.01,-20.76 -10.27,-29.25 -9.36,-12.69 -9.72,-13.75 -4.68,-13.75 2.28,0 2.37,-0.17 1.19,-2.3 -2.26,-4.04 -8.14,-11.78 -13.11,-17.25 -5.65,-6.21 -12.51,-15.87 -16.29,-22.94 -1.46,-2.75 -5.91,-9.72 -9.88,-15.5 -7.59,-11.06 -11.5,-17.98 -11.5,-20.35 0,-0.78 0.68,-1.98 1.51,-2.68 2.03,-1.68 4.5,0.57 8.75,7.95 2.08,3.64 3.31,4.98 3.53,3.88 0.18,-0.93 -0.43,-2.86 -1.37,-4.28 -0.93,-1.43 -1.44,-2.84 -1.14,-3.15 0.31,-0.31 -0.59,-3.55 -2,-7.22 -1.41,-3.66 -3.83,-9.98 -5.37,-14.04 -1.55,-4.06 -3.68,-8.33 -4.75,-9.5 -1.07,-1.17 -2.25,-3.55 -2.62,-5.3 -0.37,-1.75 -1.32,-3.72 -2.11,-4.37 -0.79,-0.66 -1.43,-1.74 -1.43,-2.41 0,-1.1 -1.7,-3.56 -10.02,-14.54 -4.1,-5.41 -7.53,-11.79 -6.75,-12.57 0.39,-0.38 1.86,0.05 3.26,0.98 1.41,0.92 3.02,1.39 3.57,1.05 0.56,-0.35 2.49,0.99 4.3,2.96 4.6,5.03 6.16,4.46 2.53,-0.92 -1.67,-2.47 -3.45,-4.5 -3.95,-4.5 -0.5,0 -2.05,-2.25 -3.44,-5 -1.4,-2.75 -2.94,-5 -3.43,-5 -1.13,0 -6.07,-8.38 -6.07,-10.3 0,-0.79 -2.03,-4.455 -4.5,-8.146 -2.48,-3.691 -4.5,-7.559 -4.5,-8.597 0,-2.102 2.78,-3.957 5.93,-3.957 2.64,0 2.6,-0.861 -0.28,-5.931 -3.13,-5.505 -11.78,-12.756 -16.84,-14.119 -2.25,-0.605 -5.76,-2.207 -7.8,-3.561 -2.05,-1.353 -6.81,-3.58 -10.58,-4.948 -3.77,-1.368 -7.77,-3.167 -8.9,-3.997 -7.37,-5.465 -9.09,-6.444 -11.32,-6.444 -3.53,0 -10.21,-2.138 -10.21,-3.269 0,-1.279 20.4,-0.313 25.24,1.195 2.06,0.642 6.63,3.605 10.14,6.586 3.51,2.98 8.23,6.054 10.48,6.83 2.26,0.777 7.56,3.38 11.78,5.785 8.97,5.101 10.23,6.787 20.43,27.304 4.96,9.986 6.93,15.019 6.93,17.789 0,2.12 0.83,5.53 1.86,7.57 1.03,2.04 2.16,5.32 2.51,7.28 0.36,1.97 1.77,5.09 3.14,6.95 1.37,1.85 2.49,4.2 2.49,5.21 0,3.31 3.03,9.2 6.64,12.91 3.02,3.09 3.38,3.94 2.45,5.68 -1.49,2.79 -1.32,7.17 0.41,10.18 0.78,1.38 1.44,3.44 1.46,4.58 0.02,1.14 1.42,4.16 3.11,6.71 2.11,3.19 3.35,6.65 3.98,11.09 0.5,3.55 1.35,7.51 1.88,8.79 0.53,1.28 1.67,7.71 2.54,14.29 1.29,9.93 1.96,12.4 3.93,14.5 1.3,1.4 2.71,3.67 3.12,5.04 0.9,2.99 13.16,23.69 14.54,24.54 0.53,0.33 1.88,2.4 3.01,4.6 1.12,2.21 4.66,6.56 7.86,9.69 3.2,3.12 7.38,8.6 9.28,12.17 1.91,3.58 4.67,8.58 6.15,11.13 1.47,2.55 3.79,7.83 5.16,11.73 2.26,6.49 2.48,8.57 2.48,24.24 0,18.74 -0.5,21.32 -6.66,34.65 -1.84,3.99 -3.36,8.49 -3.38,10 -0.01,1.51 -1.14,4.55 -2.49,6.75 -1.51,2.45 -2.48,5.55 -2.5,8 -0.02,2.2 -0.7,4.87 -1.51,5.94 -0.8,1.07 -1.46,2.96 -1.46,4.21 0,4.54 -20.53,26.56 -28.49,30.57 -2.21,1.11 -4.61,2.5 -5.34,3.08 -4.44,3.57 -20.97,8.7 -28.04,8.7 -9.13,0 -15.74,1.98 -28.5,8.53 l -12.61,6.47 -10.43,0 c -9.53,0 -10.69,0.21 -13.27,2.37 -3.74,3.15 -21.37,5.63 -39.96,5.63 -9.9,0 -14.22,0.39 -16.31,1.47 -4.29,2.22 -10.03,2.59 -15.05,0.97 z m -80.006,-44.6 c -1.659,-2.29 -3.991,-4.85 -5.183,-5.68 -1.992,-1.4 -2.113,-1.38 -1.491,0.24 0.372,0.97 0.676,2.12 0.676,2.56 0,1.31 6.264,7.04 7.694,7.04 0.82,0 0.17,-1.58 -1.696,-4.16 z m 279.83,-70.15 c -0.09,-1.75 0.18,-4.43 0.61,-5.94 1.09,-3.83 -0.89,-3.55 -2.86,0.4 -1.86,3.72 -1.87,3.94 -0.58,7.35 1.3,3.4 3.04,2.29 2.83,-1.81 z M 80.614,300.57 c -0.275,-3.85 -0.861,-7.9 -1.303,-9 -0.718,-1.79 -0.875,-1.68 -1.463,1 -0.888,4.04 -1.034,21.38 -0.206,24.48 1.196,4.47 3.539,-8.52 2.972,-16.48 z m 298.99,-19.96 c -0.32,-0.85 -1.07,-1.54 -1.66,-1.54 -0.74,0 -0.72,0.64 0.05,2.09 1.24,2.32 2.54,1.88 1.61,-0.55 z m -3.65,-4.34 c 0,-1.05 -2.18,-3.2 -3.24,-3.2 -0.46,0 -0.35,0.9 0.24,2 1.05,1.97 3,2.75 3,1.2 z m -241.85,146.8 c -2.18,-2.95 -2.18,-3 -0.18,-3 2.97,0 2.54,-1.29 -2.47,-7.45 -4.61,-5.66 -5.79,-9.55 -2.9,-9.55 1.15,0 1.4,-0.5 0.87,-1.75 -0.4,-0.96 -0.97,-2.84 -1.25,-4.17 -0.29,-1.34 -1.08,-3.5 -1.76,-4.82 -1.6,-3.08 -0.76,-6.26 1.65,-6.26 2.18,0 2.42,-1.07 0.65,-2.84 -1.5,-1.5 -2.08,-19.85 -0.65,-20.73 0.53,-0.33 0.68,-1.49 0.34,-2.59 -0.87,-2.74 0.29,-6.84 1.95,-6.84 1.32,0 3.6,6.83 3.6,10.82 0,1.06 1.12,4.47 2.5,7.58 2.92,6.62 3.08,8.45 0.87,10.07 -1.32,0.96 -1.41,1.6 -0.48,3.33 1.5,2.81 1.07,8.41 -0.77,9.81 -1.71,1.3 -0.89,4.16 1.45,5.06 0.9,0.34 1.98,0.05 2.42,-0.65 1.03,-1.68 3.01,-0.4 3.01,1.96 0,2.92 -1.09,5.02 -2.61,5.02 -1.8,0 -1.77,2.17 0.11,6.65 0.82,1.98 1.5,4.62 1.5,5.87 0,1.24 -0.68,2.53 -1.5,2.84 -0.83,0.32 -1.5,1.49 -1.5,2.61 0,2.95 -2.29,2.49 -4.85,-0.97 z m -3.65,-7 c -0.34,-0.55 -0.15,-1 0.44,-1 0.58,0 1.06,0.45 1.06,1 0,0.55 -0.2,1 -0.45,1 -0.24,0 -0.71,-0.45 -1.05,-1 z m 192.5,-11.14 c 0,-0.35 0.67,-1.92 1.49,-3.5 0.86,-1.65 1.5,-5.53 1.5,-9.2 0,-5.5 0.27,-6.42 2.01,-6.87 2.29,-0.6 2.57,-3.33 0.86,-8.25 -0.71,-2.04 -0.78,-3.49 -0.18,-3.9 0.53,-0.35 1.25,-1.43 1.61,-2.39 0.75,-2.03 4.7,-2.33 6.61,-0.5 1.38,1.31 1.35,0.6 -0.42,-9.79 -0.53,-3.1 -0.32,-4.35 0.91,-5.37 2.85,-2.37 2.09,-10.45 -1.61,-17.19 -2.07,-3.77 -2.88,-6.2 -2.25,-6.81 1.58,-1.55 6.47,-2.45 6.47,-1.2 0,0.61 -0.73,1.11 -1.63,1.11 -1.27,0 -1.37,0.3 -0.46,1.4 0.66,0.79 2.07,1.16 3.28,0.84 1.81,-0.48 2.03,-0.22 1.52,1.75 -0.36,1.36 0.15,3.79 1.22,5.91 1.01,1.98 2.12,5.85 2.48,8.6 0.87,6.68 -0.82,19.18 -2.89,21.48 -0.91,1 -1.86,3.49 -2.11,5.53 -0.25,2.04 -0.99,4.67 -1.64,5.85 -1.72,3.11 -4.7,11.85 -4.74,13.89 -0.02,1.2 -0.83,1.75 -2.59,1.75 -1.66,0 -3.74,1.3 -5.99,3.75 -1.89,2.06 -3.45,3.46 -3.45,3.11 z m 22.07,-17.28 c -0.04,-1.05 0.2,-1.64 0.53,-1.31 0.33,0.33 0.37,1.2 0.08,1.92 -0.32,0.8 -0.56,0.56 -0.61,-0.61 z m -97.44,-46.78 c -0.96,-1.51 -1.38,-4.35 -1.22,-8.3 0.15,-3.67 -0.46,-8.28 -1.58,-11.88 -2.21,-7.09 -2.19,-6.62 -0.23,-6.62 1.14,0 1.4,-0.51 0.88,-1.75 -1.65,-3.98 -2.68,-9.31 -2.09,-10.84 0.43,-1.12 1.42,-1.49 3.14,-1.16 3.27,0.63 4.12,-0.87 1.89,-3.34 -1.24,-1.37 -1.46,-2.27 -0.73,-3.01 1.81,-1.8 -4.28,-15.26 -8.19,-18.13 -0.55,-0.41 0.47,-0.75 2.28,-0.75 3.8,-0.02 4.92,-1.84 3.15,-5.15 -0.67,-1.25 -1.29,-4.38 -1.37,-6.94 -0.09,-2.9 -0.8,-5.3 -1.86,-6.37 -0.94,-0.93 -1.7,-3.08 -1.7,-4.76 0,-3.98 -3.43,-9.45 -7.1,-11.35 -3.51,-1.81 -3.77,-3.45 -0.55,-3.45 1.53,0 4.08,1.82 7.34,5.25 2.74,2.89 6.09,5.98 7.43,6.88 6.61,4.42 13.93,21.75 13.86,32.81 -0.02,3.61 0.33,8.14 0.78,10.06 0.45,1.93 0.45,6.32 -0.01,9.76 -0.53,3.93 -0.45,7.66 0.2,10 2.05,7.39 1.14,14.24 -1.88,14.24 -1.31,0 -2.04,1.56 -3.09,6.57 -1.52,7.3 -2.46,8.92 -5.68,9.88 -1.63,0.48 -2.57,0.06 -3.67,-1.65 z m 10.03,-27.05 c -0.28,-0.69 -0.51,-0.12 -0.51,1.25 0,1.38 0.23,1.94 0.51,1.25 0.28,-0.69 0.28,-1.81 0,-2.5 z m -5.16,-15.75 c -0.34,-0.55 -0.82,-1 -1.06,-1 -0.25,0 -0.44,0.45 -0.44,1 0,0.55 0.47,1 1.05,1 0.59,0 0.79,-0.45 0.45,-1 z m 6.5,-7.88 c 0,-0.48 -0.68,-1.44 -1.5,-2.12 -1.22,-1.01 -1.5,-0.97 -1.5,0.21 0,0.8 0.3,1.76 0.66,2.12 0.95,0.95 2.34,0.83 2.34,-0.21 z m -4.82,-20.34 c -0.72,-0.71 -1.18,-0.77 -1.18,-0.15 0,1.34 1.18,2.52 1.85,1.85 0.28,-0.28 -0.02,-1.05 -0.67,-1.7 z m 47.27,61.15 c -0.36,-0.58 -0.41,-1.3 -0.12,-1.6 0.72,-0.71 2.67,0.55 2.67,1.73 0,1.28 -1.73,1.19 -2.55,-0.13 z m -193.77,-4.18 c -0.74,-1.24 -2.03,-3.37 -2.85,-4.75 -2.14,-3.6 -4.18,-11.65 -3.44,-13.59 0.47,-1.22 1.39,-1.5 3.51,-1.08 l 2.87,0.57 -2.35,-4.85 c -3.76,-7.81 -4.07,-10.07 -1.46,-10.75 2.26,-0.59 2.3,-1.23 0.5,-7.06 -0.59,-1.9 -0.21,-2.43 2.42,-3.35 3.62,-1.26 3.67,-1.56 1.42,-7.89 -1.62,-4.57 -1.61,-4.88 0.22,-7.63 1.16,-1.74 2.24,-5.82 2.73,-10.37 0.45,-4.12 0.98,-8.85 1.19,-10.5 0.2,-1.65 0.68,-7.05 1.04,-12 0.49,-6.49 1.19,-9.63 2.51,-11.25 1,-1.24 2.02,-2.25 2.26,-2.25 0.5,0 1.93,27.41 1.75,33.49 -0.07,2.34 -0.71,4.33 -1.56,4.8 -1.15,0.64 -1.32,2.23 -0.82,7.62 0.43,4.62 0.27,7.04 -0.49,7.51 -0.67,0.41 -1.13,3.54 -1.13,7.57 0,4.77 -0.46,7.32 -1.5,8.37 -0.85,0.84 -1.5,3.28 -1.5,5.58 0,2.25 -0.51,4.89 -1.12,5.88 -0.88,1.41 -0.65,2.71 1.08,6.11 2.56,5.02 1.56,7.5 -2.11,5.21 -3.22,-2.01 -4.16,-0.12 -2.47,4.95 3.33,9.97 2.92,15.65 -0.7,9.66 z m 230.18,-58 c -1.25,-1.79 -5.33,-6.6 -9.07,-10.69 -3.73,-4.09 -6.79,-8.04 -6.79,-8.78 0,-2.35 2.59,-2.45 6.35,-0.23 5.18,3.06 4.7,0.62 -0.94,-4.79 -3.7,-3.54 -4.48,-4.87 -4,-6.79 0.45,-1.76 -0.18,-3.27 -2.41,-5.81 -3.18,-3.62 -3.83,-6.19 -1.75,-6.95 0.86,-0.32 0.58,-1.1 -0.93,-2.55 -1.92,-1.86 -2.04,-2.46 -1,-5.22 1.05,-2.79 0.94,-3.31 -1.07,-4.94 -1.24,-1 -2.25,-2.83 -2.25,-4.07 0,-1.23 -1.2,-3.81 -2.66,-5.72 -2.31,-3.03 -2.49,-3.75 -1.37,-5.54 1.15,-1.84 0.88,-2.39 -2.6,-5.42 -2.13,-1.85 -4.44,-3.81 -5.12,-4.35 -0.69,-0.54 -1.25,-1.41 -1.25,-1.94 0,-1.52 2.22,-1.12 5.77,1.04 3.87,2.36 4.23,2.42 4.23,0.67 0,-0.72 -1.13,-2.38 -2.5,-3.67 -2.65,-2.49 -3.2,-4 -1.45,-4 2.28,0 6.87,6.36 6.81,9.43 -0.03,1.69 1.05,5.32 2.4,8.07 1.35,2.75 3.02,6.8 3.71,9 0.7,2.2 2.49,5.35 3.98,7 4.4,4.86 9.53,16.36 9.65,21.64 0.06,3.01 0.85,5.69 2.25,7.65 1.18,1.66 2.15,3.53 2.15,4.16 0,0.63 0.73,2.56 1.62,4.29 1.55,3 1.53,3.22 -0.5,4.86 -2.67,2.16 -2.66,2.33 0.42,6.37 3.17,4.16 4.48,10.53 2.15,10.53 -0.85,0 -2.58,-1.46 -3.83,-3.25 z m -230.86,-73.55 c 0,-0.99 1.77,-3.52 3.93,-5.64 3.51,-3.43 4.01,-4.52 4.62,-10.2 0.37,-3.5 1.08,-6.36 1.56,-6.36 0.49,0 0.89,-0.89 0.89,-1.97 0,-1.08 0.9,-3.57 2,-5.53 1.1,-1.96 2,-4.62 2,-5.91 0,-1.29 0.62,-2.87 1.39,-3.5 1.45,-1.21 2.63,-6.44 2.61,-11.59 -0.01,-1.71 1.04,-4.29 2.42,-6 2.31,-2.84 2.53,-2.91 4.19,-1.29 1.48,1.46 1.56,2.12 0.52,4.41 -0.86,1.87 -0.91,3 -0.18,3.73 1.92,1.92 1.18,7.17 -1.33,9.54 -1.6,1.49 -2.56,3.78 -2.94,6.92 -0.3,2.58 -0.85,6.27 -1.22,8.19 -0.36,1.93 -0.73,4.5 -0.81,5.73 -0.09,1.23 -1.17,2.95 -2.42,3.82 -1.25,0.87 -1.99,2.04 -1.65,2.58 0.34,0.55 0.32,2.55 -0.03,4.44 -0.51,2.7 -1.39,3.75 -4.08,4.88 -1.88,0.78 -4.42,2.36 -5.64,3.49 -2.75,2.56 -5.83,2.7 -5.83,0.26 z m 52.59,-62 c -0.28,-0.94 -0.46,-4.62 -0.39,-8.2 0.06,-3.57 -0.21,-7.51 -0.61,-8.75 -0.59,-1.83 -0.25,-2.43 1.84,-3.22 1.8,-0.69 2.57,-1.72 2.57,-3.45 0,-1.35 0.39,-2.7 0.86,-3 0.48,-0.29 1.18,-2.44 1.55,-4.78 0.37,-2.331 1.22,-4.575 1.88,-4.983 0.66,-0.409 1.22,-2.753 1.23,-5.21 0.03,-3.509 0.59,-4.984 2.64,-6.887 1.44,-1.332 3.34,-2.7 4.23,-3.04 0.9,-0.345 1.61,-1.747 1.61,-3.18 0,-1.576 0.67,-2.763 1.75,-3.082 0.96,-0.286 2.94,-1.127 4.4,-1.869 l 2.66,-1.348 -1.89,4.149 c -1.03,2.283 -1.9,5.275 -1.93,6.65 -0.03,1.375 -0.72,3.374 -1.53,4.441 -0.8,1.068 -1.46,3.189 -1.46,4.715 0,1.75 -0.74,3.169 -2,3.844 -1.46,0.778 -2,2.094 -2,4.81 0,2.06 -0.68,4.7 -1.5,5.88 -0.82,1.17 -1.66,4 -1.87,6.29 -0.2,2.29 -0.88,4.67 -1.5,5.29 -0.62,0.62 -1.13,2.21 -1.13,3.52 0,1.53 -0.71,2.58 -1.95,2.91 -1.45,0.38 -2.03,1.53 -2.25,4.54 -0.23,3.1 -0.82,4.23 -2.5,4.85 -1.66,0.61 -2.33,0.39 -2.71,-0.89 z m 109.87,-17.24 c -1.61,-1.67 -5.03,-4.39 -7.6,-6.05 -5.67,-3.64 -6.49,-5.35 -3.57,-7.43 l 2.21,-1.58 -2.08,-1.721 c -3.48,-2.875 -5.88,-7.35 -5.57,-10.346 0.24,-2.28 -0.31,-3.183 -2.78,-4.586 -1.69,-0.961 -3.35,-2.647 -3.68,-3.747 -0.34,-1.1 -1.57,-2.793 -2.75,-3.762 -2,-1.646 -2.03,-1.831 -0.39,-2.804 1.41,-0.835 1.54,-1.442 0.67,-3.073 -0.6,-1.118 -0.85,-2.273 -0.55,-2.567 1.15,-1.149 7.74,0.914 8.9,2.786 0.67,1.09 2.95,3.178 5.05,4.639 3.44,2.387 3.77,2.987 3.22,5.883 -0.69,3.705 2.47,9.235 7.6,13.287 2.63,2.08 2.94,2.828 2.39,5.771 -0.48,2.54 -0.12,4.11 1.42,6.27 1.12,1.58 2.05,3.45 2.05,4.15 0,0.69 0.68,2.02 1.52,2.95 1.82,2 0.96,4.97 -1.44,4.97 -0.94,0 -3.02,-1.37 -4.62,-3.04 z"
       inkscape:connector-curvature="0"
       style="fill:#ff0000;fill-opacity:1"
       id="path2204" />
  </g>
</svg>
